;Tspan12;Tshz1;Fnbp1l;Adamts15;Cldn12;Rxfp1;2310042E22Rik;Sema3c;Jam2;Apbb1ip;Frem2;BC005764;Deptor;C130030K03Rik;Klhl13;Tnfaip8l3;Ascl1;Atp1b2;Tmem132e;Prkar2b;Necab1;Nr2f2;Stmn1-rs1;Shisa9;Sub1;Vat1l;Pcdh18;Dpysl5;Agtr2;Cxcl14
Tspan12;0.809450905263471;0;0;-0.00915098749854521;0;0;0;0;0;0;0;0;0;-0.0395181585033457;0;-0.0485180646871544;0;0;0;0;0;0;-0.0495986701734243;0;0;0;0;0;0;0
Tshz1;0;0.85271841978881;-0.00848482575349245;-0.0441356028045501;0;0;0;0;0;-0.0300219342197781;0;0;-0.0984478789903512;-0.00793075972237433;-0.028045487965517;-0.0130614931963871;-0.0243040646235835;-0.0550570025359879;0;-0.00957818282360108;0;-0.0284347543855408;0;0;0;-0.0152056215181281;0;-0.0283820891145482;0;-0.0579233597092502
Fnbp1l;0;-0.00848391772805491;0.86061503058644;0;0;0;-0.0643120820048332;0;-0.0179453350680549;-0.0405016856183923;-0.00227977478934776;-0.0059678150588937;0;0;-0.0369663273591229;0;0;-0.0273993603281867;0;-0.141924698244102;-0.00812756117610968;0;-0.0143169832122382;-0.0374181139257344;0;0;0;0;0;0
Adamts15;-0.00915115785450895;-0.0441361207840744;0;0.813783614008568;0;0;0;-0.076082388107186;0;0;0;0;0;-0.0163231616459871;-0.0176820388554451;0;0;0;-0.0135812443047803;-0.0122325543061101;0;0;0;0;0;0;0;0;0;0
Cldn12;0;0;0;0;0.804415422094952;0;0;-0.00962746527083154;0;0;0;0;0;0;0;0;0;0;-0.0208237156769313;0;0;0;0;0;-0.0228682889823428;0;0;-0.0420514044908656;0;0
Rxfp1;0;0;0;0;0;0.850304203844293;-0.126921443398516;0;-0.00963222637242481;0;0;0;0;0;-0.117811063150587;0;0;0;0;0;0;0;0;0;0;0;0;0;0;-0.0378259673260538
2310042E22Rik;0;0;-0.0643127640353932;0;0;-0.126923357421243;0.924740444350515;0;0;-0.140508550137575;-0.0722907639553105;0;0;0;-0.105297615396825;0;0;0;-0.0206662960130005;-0.0240676656885853;0;-0.0939834597847975;0;0;0;0;0;0;0;0
Sema3c;0;0;0;-0.0760832344135479;-0.00962751521465509;0;0;1.00675701828368;-0.105115423394957;0;0;0;0;-0.00736899151625731;0;0;0;-0.0429678948879124;-0.062982898643071;-0.00114870159542673;-0.100692689750529;0;0;-0.315611508328637;-0.0328632034196271;0;0;-0.0214953590499859;0;0
Jam2;0;0;-0.0179458062413763;0;0;-0.00963176929248313;0;-0.105114795571665;0.922164428969023;-0.0352530711221065;0;0;0;0;-0.115516832141068;0;0;0;0;-0.0561090600293155;0;0;0;-0.148049739919409;0;0;0;0;0;-0.0700332636313985
Apbb1ip;0;-0.0300260232389218;-0.0405067626535612;0;0;0;-0.140509629351236;0;-0.0352584322033232;1.03284268359302;0;0;-0.178997661782903;0;-0.0172244627608914;0;0;0;0;-0.0272752868996534;0;-0.230737305357959;0;-0.00228150324597855;0;-0.0445972029570633;-0.0968505199220847;-0.0225716222049785;0;-0.0788159032592714
Frem2;0;0;-0.00227980257486841;0;0;0;-0.0722895912123645;0;0;0;0.82917379787529;0;0;0;-0.0144797123877434;0;-0.0247854040987434;-0.0296980236579151;-0.00436992415940522;-0.0539544408823282;0;-0.0734130064992605;0;0;0;0;0;0;0;0
BC005764;0;0;-0.00596819831927049;0;0;0;0;0;0;0;0;0.813391437431416;0;0;-0.0146472248255085;0;0;0;0;-0.00836774341411375;-0.0342161331992861;-0.0222281060224656;-0.0115043287236143;-0.0423781344273802;0;0;0;0;0;-0.0352298478119655
Deptor;0;-0.0984479927075518;0;0;0;0;0;0;0;-0.178993758729841;0;0;0.987390705928818;-0.0973077769443305;-0.10593330705179;0;0;-0.023237019853837;-0.00487020447821202;0;0;-0.00885793371072656;0;0;0;-0.0694211309668337;-0.0245788995956941;0;-0.0494829172715816;-0.180268088370723
C130030K03Rik;-0.0395180918330501;-0.00793097964750373;0;-0.0163232636537179;0;0;0;-0.00737021244737665;0;0;0;0;-0.0973105950147359;0.879807735959124;-0.0710104858602731;-0.0217458732190468;-0.0876930135139146;0;-0.0341704457015118;0;0;-0.0632206702050057;-0.0470706340682667;0;0;0;0;-0.0571751010647209;0;-0.0415856867094494
Klhl13;0;-0.0280435476283802;-0.0369672891637215;-0.0176815005638059;0;-0.117816686163307;-0.10529444141969;0;-0.115515424943248;-0.0172186288266561;-0.0144800534991632;-0.0146470065364194;-0.105934812747072;-0.0710080091027931;1.0117000468483;0;0;0;-0.0352755129173597;-0.171842605790443;0;-0.0352574547136769;-0.0106008671958147;0;0;0;-0.0152086328608259;0;-0.0201260491749402;-0.0861345938095415
Tnfaip8l3;-0.0485178569018177;-0.0130607579079091;0;0;0;0;0;0;0;0;0;0;0;-0.0217454011982592;0;0.871145015370336;0;0;-0.0865319839107432;-0.0391235762084843;0;-0.153327771796543;0;-0.0158271593841847;0;0;0;-0.0620578810422724;0;0
Ascl1;0;-0.024303886360241;0;0;0;0;0;0;0;0;-0.0247854697670121;0;0;-0.0876927947598338;0;0;0.813143630182923;-0.0286360278745648;0;0;0;0;0;0;0;0;0;0;0;0
Atp1b2;0;-0.0550574139904633;-0.0273991435895677;0;0;0;0;-0.0429675807147009;0;0;-0.029698396442777;0;-0.0232363531215332;0;0;0;-0.0286359503162888;0.835993548101624;-0.00972641729177206;-0.040828910711372;0;-0.0666153384875161;0;-0.0160990375385192;-0.0241725173948678;0;0;-0.0272408186657893;0;0
Tmem132e;0;0;0;-0.0135805264223878;-0.0208238175083203;0;-0.0206682328889909;-0.0629881123787791;0;0;-0.00437111082509047;0;-0.0048716328240954;-0.0341706583564321;-0.0352770128933557;-0.0865366579072511;0;-0.0097283825084185;0.942399384809928;-0.0857449626529926;-0.0566549402103591;-0.0812477574876846;-0.0418360829179209;-0.0479287295637681;-0.0299185100738442;-0.0182737418917456;0;-0.0202083830687878;0;-0.106526189829553
Prkar2b;0;-0.00957911933895;-0.141925407038644;-0.0122328035574433;0;0;-0.0240671064003971;-0.0011509508884471;-0.0561087750985633;-0.0272809739264888;-0.0539553228401382;-0.00836828173387778;0;0;-0.171844716741019;-0.039123872177254;0;-0.0408296996104202;-0.0857435548318775;1.03826230320056;-0.0704971605108663;-0.0543392639365652;-0.0328005615793921;-0.124043400713245;0;-0.000125864601328684;0;0;0;-0.101332940602805
Necab1;0;0;-0.00812798717650063;0;0;0;0;-0.100694594865786;0;0;0;-0.034216683655439;0;0;0;0;0;0;-0.0566577727638884;-0.0704995654571345;1.00549970282048;0;0;-0.15039994664382;-0.218646603217854;0;0;-0.102767717292178;0;-0.0943984346902675
Nr2f2;0;-0.0284310103779058;0;0;0;0;-0.0939790920496266;0;0;-0.230732693279814;-0.0734143848134282;-0.0222291348796182;-0.00885849412458429;-0.0632206002585747;-0.0352606928944587;-0.153330027318704;0;-0.0666181352755213;-0.0812531438871907;-0.0543374624219949;0;1.12509740767494;-0.070330579686872;-0.0336691156788513;0;-0.0699020860828666;0;-0.052913092618175;0;-0.192140459174341
Stmn1-rs1;-0.0495985639274837;0;-0.0143177032416064;0;0;0;0;0;0;0;0;-0.0115043406880888;0;-0.0470704932293613;-0.0106011596852918;0;0;0;-0.0418363141848968;-0.0327979868581858;0;-0.070327260406605;0.868287402291514;-0.0501751078672295;0;-0.0573323944836261;0;-0.0653593403716852;0;-0.0649521603893551
Shisa9;0;0;-0.0374187332249907;0;0;0;0;-0.315609115442896;-0.148048601019119;-0.00228327008601455;0;-0.042378539167647;0;0;0;-0.0158271544780005;0;-0.0160990625214486;-0.0479310121420425;-0.124045100587572;-0.150400504868028;-0.0336697135956195;-0.0501763914872968;1.14775239471407;-0.0784599270658209;0;0;0;0;-0.143602332061373
Sub1;0;0;0;0;-0.0228683247088641;0;0;-0.0328624890298917;0;0;0;0;0;0;0;0;0;-0.0241735252891859;-0.0299173825504289;0;-0.218645370144658;0;0;-0.0784588822739301;0.893562346915667;0;0;-0.0315026998649511;0;0
Vat1l;0;-0.0152054631201746;0;0;0;0;0;0;0;-0.0445982004455173;0;0;-0.0694212100373055;0;0;0;0;0;-0.0182736353568628;-0.000125261300547562;0;-0.0699016338645265;-0.0573327874933226;0;0;0.839292073165834;0;-0.0494098298944377;0;-0.00241532233069291
Pcdh18;0;0;0;0;0;0;0;0;0;-0.096850196165786;0;0;-0.0245789418887335;0;-0.0152087265354718;0;0;0;0;0;0;0;0;0;0;0;0.815144851117998;0;0;0
Dpysl5;0;-0.0283811976585058;0;0;-0.0420513545239787;0;0;-0.0214954796116556;0;-0.0225727138698036;0;0;0;-0.0571753644516318;0;-0.0620584185021354;0;-0.0272415305759017;-0.0202090093309441;0;-0.102768392570228;-0.0529134249977464;-0.065359839376535;0;-0.0315026660064197;-0.0494099373481821;0;0.879541331439231;0;-0.0361618135451773
Agtr2;0;0;0;0;0;0;0;0;0;0;0;0;-0.0494830121992464;0;-0.0201262456050792;0;0;0;0;0;0;0;0;0;0;0;0;0;0.804120501583486;0
Cxcl14;0;-0.0579240677160543;0;0;0;-0.0378307757131123;0;0;-0.0700328573873298;-0.0788143669338678;0;-0.0352309098669684;-0.180271575979594;-0.0415871459867439;-0.0861356938658934;0;0;0;-0.106531618048893;-0.10133479962751;-0.0943994451932547;-0.192140137350097;-0.064951890437734;-0.14360007346704;0;-0.00241495874662119;0;-0.0361609077470591;0;1.15310513251192
